{"code":200,"meta":{"pagination":{"total":1310,"pages":66,"page":1,"limit":20}},"data":[{"id":90,"name":"Bhadra Dwivedi VM","email":"bhadra_dwivedi_vm@monahan-krajcik.info","gender":"Female","status":"Active","created_at":"2020-12-24T03:50:05.135+05:30","updated_at":"2020-12-24T03:50:05.135+05:30"},{"id":91,"name":"Ganesh Jain","email":"ganesh_jain@aufderhar.net","gender":"Male","status":"Active","created_at":"2020-12-24T03:50:05.138+05:30","updated_at":"2020-12-24T03:50:05.138+05:30"},{"id":92,"name":"Suryakanta Bharadwaj","email":"suryakanta_bharadwaj@harvey.info","gender":"Male","status":"Active","created_at":"2020-12-24T03:50:05.161+05:30","updated_at":"2020-12-24T03:50:05.161+05:30"},{"id":93,"name":"Opaline Sinha","email":"sinha_opaline@pfeffer.co","gender":"Female","status":"Inactive","created_at":"2020-12-24T03:50:05.166+05:30","updated_at":"2020-12-24T03:50:05.166+05:30"},{"id":94,"name":"Sen. Nawal Kocchar","email":"nawal_sen_kocchar@bayer-prosacco.biz","gender":"Male","status":"Active","created_at":"2020-12-24T03:50:05.186+05:30","updated_at":"2020-12-24T03:50:05.186+05:30"},{"id":95,"name":"Dharmaketu Desai","email":"dharmaketu_desai@hahn.org","gender":"Male","status":"Inactive","created_at":"2020-12-24T03:50:05.210+05:30","updated_at":"2020-12-24T03:50:05.210+05:30"},{"id":96,"name":"Aagam Ahluwalia","email":"ahluwalia_aagam@schumm.name","gender":"Female","status":"Active","created_at":"2020-12-24T03:50:05.241+05:30","updated_at":"2020-12-24T03:50:05.241+05:30"},{"id":97,"name":"Leela Bhat","email":"leela_bhat@cremin.name","gender":"Female","status":"Active","created_at":"2020-12-24T03:50:05.260+05:30","updated_at":"2020-12-24T03:50:05.260+05:30"},{"id":98,"name":"Chetanaanand Pothuvaal PhD","email":"phd_chetanaanand_pothuvaal@blick.info","gender":"Female","status":"Active","created_at":"2020-12-24T03:50:05.283+05:30","updated_at":"2020-12-24T03:50:05.283+05:30"},{"id":99,"name":"Chatura Mukhopadhyay DC","email":"chatura_dc_mukhopadhyay@baumbach.com","gender":"Male","status":"Active","created_at":"2020-12-24T03:50:05.290+05:30","updated_at":"2020-12-24T03:50:05.290+05:30"},{"id":100,"name":"Birjesh Gandhi","email":"gandhi_birjesh@kozey-smitham.com","gender":"Female","status":"Active","created_at":"2020-12-24T03:50:05.307+05:30","updated_at":"2020-12-24T03:50:05.307+05:30"},{"id":101,"name":"Bishnu Mukhopadhyay","email":"bishnu_mukhopadhyay@steuber-olson.com","gender":"Female","status":"Inactive","created_at":"2020-12-24T03:50:05.328+05:30","updated_at":"2020-12-24T03:50:05.328+05:30"},{"id":102,"name":"Devasree Patil","email":"devasree_patil@lubowitz-waters.co","gender":"Female","status":"Inactive","created_at":"2020-12-24T03:50:05.346+05:30","updated_at":"2020-12-24T03:50:05.346+05:30"},{"id":103,"name":"Rev. Mohinder Mehrotra","email":"mohinder_rev_mehrotra@murphy.com","gender":"Male","status":"Inactive","created_at":"2020-12-24T03:50:05.357+05:30","updated_at":"2020-12-24T03:50:05.357+05:30"},{"id":104,"name":"Chidaakaash Varma","email":"chidaakaash_varma@howe-cartwright.info","gender":"Female","status":"Active","created_at":"2020-12-24T03:50:05.371+05:30","updated_at":"2020-12-24T03:50:05.371+05:30"},{"id":105,"name":"Anala Kakkar DDS","email":"kakkar_anala_dds@breitenberg.io","gender":"Female","status":"Inactive","created_at":"2020-12-24T03:50:05.383+05:30","updated_at":"2020-12-24T03:50:05.383+05:30"},{"id":106,"name":"Uma Varrier","email":"varrier_uma@cassin.name","gender":"Male","status":"Inactive","created_at":"2020-12-24T03:50:05.393+05:30","updated_at":"2020-12-24T03:50:05.393+05:30"},{"id":107,"name":"Nalini Dubashi","email":"nalini_dubashi@schumm.name","gender":"Male","status":"Active","created_at":"2020-12-24T03:50:05.413+05:30","updated_at":"2020-12-24T03:50:05.413+05:30"},{"id":108,"name":"Eshana Agarwal","email":"agarwal_eshana@green-halvorson.io","gender":"Female","status":"Inactive","created_at":"2020-12-24T03:50:05.437+05:30","updated_at":"2020-12-24T03:50:05.437+05:30"},{"id":109,"name":"Atmananda Sharma DDS","email":"sharma_atmananda_dds@schiller.io","gender":"Male","status":"Inactive","created_at":"2020-12-24T03:50:05.447+05:30","updated_at":"2020-12-24T03:50:05.447+05:30"}]}
